fpga/tb_ad5940_adc_polling.vcd
$date
	Mon Mar  9 07:07:55 2026
$end
$version
	Icarus Verilog
$end
$timescale
	1ps
$end
$scope module tb_ad5940_adc_polling $end
$var wire 4 ! state_out [3:0] $end
$var wire 1 " spi_mosi $end
$var wire 1 # spi_miso $end
$var wire 1 $ spi_cs_n $end
$var wire 1 % spi_clk $end
$var wire 1 & afe_rst_n $end
$var wire 1 ' adc_valid $end
$var wire 16 ( adc_data [15:0] $end
$var reg 1 ) clk $end
$var reg 1 * rst_n $end
$var integer 32 + pass_count [31:0] $end
$var integer 32 , valid_count [31:0] $end
$scope module dut $end
$var wire 1 ) clk $end
$var wire 1 * rst_n $end
$var wire 4 - state_out [3:0] $end
$var wire 32 . spi_rdata [31:0] $end
$var wire 1 " spi_mosi $end
$var wire 1 # spi_miso $end
$var wire 1 / spi_done $end
$var wire 1 $ spi_cs_n $end
$var wire 1 % spi_clk $end
$var wire 1 0 spi_busy $end
$var parameter 32 1 BOOT_CYCLES $end
$var parameter 32 2 CLK_DIV $end
$var parameter 32 3 INIT_STEPS $end
$var parameter 4 4 MS_BOOT_WAIT $end
$var parameter 4 5 MS_CLR_ISSUE $end
$var parameter 4 6 MS_CLR_WAIT $end
$var parameter 4 7 MS_INIT_ISSUE $end
$var parameter 4 8 MS_INIT_WAIT $end
$var parameter 4 9 MS_POLL_ISSUE $end
$var parameter 4 : MS_POLL_WAIT $end
$var parameter 4 ; MS_RESET $end
$var parameter 4 < MS_RES_ISSUE $end
$var parameter 4 = MS_RES_WAIT $end
$var parameter 32 > RESET_CYCLES $end
$var reg 16 ? adc_data [15:0] $end
$var reg 1 ' adc_valid $end
$var reg 1 & afe_rst_n $end
$var reg 32 @ delay_cnt [31:0] $end
$var reg 5 A init_step [4:0] $end
$var reg 4 B main_state [3:0] $end
$var reg 16 C rom_addr [15:0] $end
$var reg 32 D rom_data [31:0] $end
$var reg 16 E spi_addr [15:0] $end
$var reg 1 F spi_rd_en $end
$var reg 32 G spi_wdata [31:0] $end
$var reg 1 H spi_wr_en $end
$scope module u_spi_master $end
$var wire 16 I addr [15:0] $end
$var wire 1 ) clk $end
$var wire 1 J is_32bit $end
$var wire 1 F rd_en $end
$var wire 1 * rst_n $end
$var wire 32 K wdata [31:0] $end
$var wire 1 H wr_en $end
$var wire 1 L tick $end
$var wire 1 # spi_miso $end
$var parameter 32 M CLK_DIV $end
$var parameter 33 N CNT_W $end
$var parameter 8 O SPICMD_READREG $end
$var parameter 8 P SPICMD_SETADDR $end
$var parameter 8 Q SPICMD_WRITEREG $end
$var parameter 3 R S_DONE $end
$var parameter 3 S S_IDLE $end
$var parameter 3 T S_P1_SHIFT $end
$var parameter 3 U S_P1_START $end
$var parameter 3 V S_P2_SHIFT $end
$var parameter 3 W S_P2_START $end
$var reg 16 X addr_r [15:0] $end
$var reg 6 Y bit_cnt [5:0] $end
$var reg 1 0 busy $end
$var reg 2 Z clk_cnt [1:0] $end
$var reg 1 / done $end
$var reg 8 [ gap_cnt [7:0] $end
$var reg 1 \ is_read $end
$var reg 32 ] rdata [31:0] $end
$var reg 48 ^ shift_rx [47:0] $end
$var reg 48 _ shift_tx [47:0] $end
$var reg 1 % spi_clk $end
$var reg 1 $ spi_cs_n $end
$var reg 1 " spi_mosi $end
$var reg 3 ` state [2:0] $end
$var reg 32 a wdata_r [31:0] $end
$upscope $end
$upscope $end
$scope module slave $end
$var wire 1 % spi_clk $end
$var wire 1 $ spi_cs_n $end
$var wire 1 " spi_mosi $end
$var parameter 8 b SPICMD_READREG $end
$var parameter 8 c SPICMD_SETADDR $end
$var parameter 8 d SPICMD_WRITEREG $end
$var reg 1 e in_phase2 $end
$var reg 16 f latched_addr [15:0] $end
$var reg 48 g rx_shift [47:0] $end
$var reg 1 # spi_miso $end
$var reg 48 h tx_shift [47:0] $end
$var integer 32 i bit_count [31:0] $end
$scope function reg_response $end
$var reg 16 j addr [15:0] $end
$upscope $end
$upscope $end
$upscope $end
$enddefinitions $end
$comment Show the parameter values. $end
$dumpall
b101101 d
b100000 c
b1101101 b
b11 W
b100 V
b1 U
b10 T
b0 S
b101 R
b101101 Q
b100000 P
b1101101 O
b10 N
b10 M
b1010 >
b1001 =
b1000 <
b0 ;
b101 :
b100 9
b11 8
b10 7
b111 6
b110 5
b1 4
b10110 3
b10 2
b10100 1
$end
#0
$dumpvars
bx j
b0 i
b0 h
b0 g
b0 f
0e
b0 a
b0 `
b0 _
b0 ^
b0 ]
0\
b0 [
b0 Z
b0 Y
b0 X
0L
b0 K
0J
b0 I
0H
b0 G
0F
b0 E
b1011001001 D
b100100001000 C
b0 B
b0 A
b0 @
b0 ?
00
0/
b0 .
b0 -
b0 ,
b0 +
0*
0)
b0 (
0'
0&
0%
1$
0#
0"
b0 !
$end
#10000
1)
#20000
0)
#30000
1)
#40000
0)
#50000
1)
#60000
0)
#70000
1L
b1 Z
b1 @
1*
1)
#80000
0)
#90000
b10 @
0L
b0 Z
1)
#100000
0)
#110000
1L
b1 Z
b11 @
1)
#120000
0)
#130000
b100 @
0L
b0 Z
1)
#140000
0)
#150000
1L
b1 Z
b101 @
1)
#160000
0)
#170000
b110 @
0L
b0 Z
1)
#180000
0)
#190000
1L
b1 Z
b111 @
1)
#200000
0)
#210000
b1000 @
0L
b0 Z
1)
#220000
0)
#230000
1L
b1 Z
b1001 @
1)
#240000
0)
#250000
b1 !
b1 -
b1 B
b0 @
0L
b0 Z
1)
#260000
0)
#270000
1L
b1 Z
b1 @
1&
1)
#280000
0)
#290000
b10 @
0L
b0 Z
1)
#300000
0)
#310000
1L
b1 Z
b11 @
1)
#320000
0)
#330000
b100 @
0L
b0 Z
1)
#340000
0)
#350000
1L
b1 Z
b101 @
1)
#360000
0)
#370000
b110 @
0L
b0 Z
1)
#380000
0)
#390000
1L
b1 Z
b111 @
1)
#400000
0)
#410000
b1000 @
0L
b0 Z
1)
#420000
0)
#430000
1L
b1 Z
b1001 @
1)
#440000
0)
#450000
b1010 @
0L
b0 Z
1)
#460000
0)
#470000
1L
b1 Z
b1011 @
1)
#480000
0)
#490000
b1100 @
0L
b0 Z
1)
#500000
0)
#510000
1L
b1 Z
b1101 @
1)
#520000
0)
#530000
b1110 @
0L
b0 Z
1)
#540000
0)
#550000
1L
b1 Z
b1111 @
1)
#560000
0)
#570000
b10000 @
0L
b0 Z
1)
#580000
0)
#590000
1L
b1 Z
b10001 @
1)
#600000
0)
#610000
b10010 @
0L
b0 Z
1)
#620000
0)
#630000
1L
b1 Z
b10011 @
1)
#640000
0)
#650000
b10 !
b10 -
b10 B
b0 @
0L
b0 Z
1)
#660000
0)
#670000
1L
b1 Z
b11 !
b11 -
b11 B
b1011001001 G
b1011001001 K
b100100001000 E
b100100001000 I
1H
1)
#680000
0)
#690000
0H
b1 `
b1011001001 a
b100100001000 X
10
0L
b0 Z
1)
#700000
0)
#710000
b10 `
b11000 Y
b1000000000100100001000000000000000000000000000 _
0$
1L
b1 Z
1)
#720000
0)
#730000
b1 i
b10111 Y
1%
0L
b0 Z
1)
#740000
0)
#750000
1L
b1 Z
1)
#760000
0)
#770000
b10000000001001000010000000000000000000000000000 _
0%
0L
b0 Z
1)
#780000
0)
#790000
1L
b1 Z
1)
#800000
0)
#810000
b10 i
b10110 Y
1%
0L
b0 Z
1)
#820000
0)
#830000
1L
b1 Z
1)
#840000
0)
#850000
1"
b100000000010010000100000000000000000000000000000 _
0%
0L
b0 Z
1)
#860000
0)
#870000
1L
b1 Z
1)
#880000
0)
#890000
b11 i
b1 g
b10101 Y
1%
0L
b0 Z
1)
#900000
0)
#910000
1L
b1 Z
1)
#920000
0)
#930000
0"
b100100001000000000000000000000000000000 _
0%
0L
b0 Z
1)
#940000
0)
#950000
1L
b1 Z
1)
#960000
0)
#970000
b100 i
b10 g
b10100 Y
1%
0L
b0 Z
1)
#980000
0)
#990000
1L
b1 Z
1)
#1000000
0)
#1010000
b1001000010000000000000000000000000000000 _
0%
0L
b0 Z
1)
#1020000
0)
#1030000
1L
b1 Z
1)
#1040000
0)
#1050000
b101 i
b100 g
b10011 Y
1%
0L
b0 Z
1)
#1060000
0)
#1070000
1L
b1 Z
1)
#1080000
0)
#1090000
b10010000100000000000000000000000000000000 _
0%
0L
b0 Z
1)
#1100000
0)
#1110000
1L
b1 Z
1)
#1120000
0)
#1130000
b110 i
b1000 g
b10010 Y
1%
0L
b0 Z
1)
#1140000
0)
#1150000
1L
b1 Z
1)
#1160000
0)
#1170000
b100100001000000000000000000000000000000000 _
0%
0L
b0 Z
1)
#1180000
0)
#1190000
1L
b1 Z
1)
#1200000
0)
#1210000
b111 i
b10000 g
b10001 Y
1%
0L
b0 Z
1)
#1220000
0)
#1230000
1L
b1 Z
1)
#1240000
0)
#1250000
b1001000010000000000000000000000000000000000 _
0%
0L
b0 Z
1)
#1260000
0)
#1270000
1L
b1 Z
1)
#1280000
0)
#1290000
b1000 i
b100000 g
b10000 Y
1%
0L
b0 Z
1)
#1300000
0)
#1310000
1L
b1 Z
1)
#1320000
0)
#1330000
b10010000100000000000000000000000000000000000 _
0%
0L
b0 Z
1)
#1340000
0)
#1350000
1L
b1 Z
1)
#1360000
0)
#1370000
b1001 i
b1000000 g
b1111 Y
1%
0L
b0 Z
1)
#1380000
0)
#1390000
1L
b1 Z
1)
#1400000
0)
#1410000
b100100001000000000000000000000000000000000000 _
0%
0L
b0 Z
1)
#1420000
0)
#1430000
1L
b1 Z
1)
#1440000
0)
#1450000
b1010 i
b10000000 g
b1110 Y
1%
0L
b0 Z
1)
#1460000
0)
#1470000
1L
b1 Z
1)
#1480000
0)
#1490000
b1001000010000000000000000000000000000000000000 _
0%
0L
b0 Z
1)
#1500000
0)
#1510000
1L
b1 Z
1)
#1520000
0)
#1530000
b1011 i
b100000000 g
b1101 Y
1%
0L
b0 Z
1)
#1540000
0)
#1550000
1L
b1 Z
1)
#1560000
0)
#1570000
b10010000100000000000000000000000000000000000000 _
0%
0L
b0 Z
1)
#1580000
0)
#1590000
1L
b1 Z
1)
#1600000
0)
#1610000
b1100 i
b1000000000 g
b1100 Y
1%
0L
b0 Z
1)
#1620000
0)
#1630000
1L
b1 Z
1)
#1640000
0)
#1650000
1"
b100100001000000000000000000000000000000000000000 _
0%
0L
b0 Z
1)
#1660000
0)
#1670000
1L
b1 Z
1)
#1680000
0)
#1690000
b1101 i
b10000000001 g
b1011 Y
1%
0L
b0 Z
1)
#1700000
0)
#1710000
1L
b1 Z
1)
#1720000
0)
#1730000
0"
b1000010000000000000000000000000000000000000000 _
0%
0L
b0 Z
1)
#1740000
0)
#1750000
1L
b1 Z
1)
#1760000
0)
#1770000
b1110 i
b100000000010 g
b1010 Y
1%
0L
b0 Z
1)
#1780000
0)
#1790000
1L
b1 Z
1)
#1800000
0)
#1810000
b10000100000000000000000000000000000000000000000 _
0%
0L
b0 Z
1)
#1820000
0)
#1830000
1L
b1 Z
1)
#1840000
0)
#1850000
b1111 i
b1000000000100 g
b1001 Y
1%
0L
b0 Z
1)
#1860000
0)
#1870000
1L
b1 Z
1)
#1880000
0)
#1890000
1"
b100001000000000000000000000000000000000000000000 _
0%
0L
b0 Z
1)
#1900000
0)
#1910000
1L
b1 Z
1)
#1920000
0)
#1930000
b10000 i
b10000000001001 g
b1000 Y
1%
0L
b0 Z
1)
#1940000
0)
#1950000
1L
b1 Z
1)
#1960000
0)
#1970000
0"
b10000000000000000000000000000000000000000000 _
0%
0L
b0 Z
1)
#1980000
0)
#1990000
1L
b1 Z
1)
#2000000
0)
#2010000
b10001 i
b100000000010010 g
b111 Y
1%
0L
b0 Z
1)
#2020000
0)
#2030000
1L
b1 Z
1)
#2040000
0)
#2050000
b100000000000000000000000000000000000000000000 _
0%
0L
b0 Z
1)
#2060000
0)
#2070000
1L
b1 Z
1)
#2080000
0)
#2090000
b10010 i
b1000000000100100 g
b110 Y
1%
0L
b0 Z
1)
#2100000
0)
#2110000
1L
b1 Z
1)
#2120000
0)
#2130000
b1000000000000000000000000000000000000000000000 _
0%
0L
b0 Z
1)
#2140000
0)
#2150000
1L
b1 Z
1)
#2160000
0)
#2170000
b10011 i
b10000000001001000 g
b101 Y
1%
0L
b0 Z
1)
#2180000
0)
#2190000
1L
b1 Z
1)
#2200000
0)
#2210000
b10000000000000000000000000000000000000000000000 _
0%
0L
b0 Z
1)
#2220000
0)
#2230000
1L
b1 Z
1)
#2240000
0)
#2250000
b10100 i
b100000000010010000 g
b100 Y
1%
0L
b0 Z
1)
#2260000
0)
#2270000
1L
b1 Z
1)
#2280000
0)
#2290000
1"
b100000000000000000000000000000000000000000000000 _
0%
0L
b0 Z
1)
#2300000
0)
#2310000
1L
b1 Z
1)
#2320000
0)
#2330000
b10101 i
b1000000000100100001 g
b11 Y
1%
0L
b0 Z
1)
#2340000
0)
#2350000
1L
b1 Z
1)
#2360000
0)
#2370000
0"
b0 _
0%
0L
b0 Z
1)
#2380000
0)
#2390000
1L
b1 Z
1)
#2400000
0)
#2410000
b10110 i
b10000000001001000010 g
b10 Y
1%
0L
b0 Z
1)
#2420000
0)
#2430000
1L
b1 Z
1)
#2440000
0)
#2450000
0%
0L
b0 Z
1)
#2460000
0)
#2470000
1L
b1 Z
1)
#2480000
0)
#2490000
b10111 i
b100000000010010000100 g
b1 Y
1%
0L
b0 Z
1)
#2500000
0)
#2510000
1L
b1 Z
1)
#2520000
0)
#2530000
0%
0L
b0 Z
1)
#2540000
0)
#2550000
1L
b1 Z
1)
#2560000
0)
#2570000
b11000 i
b1000000000100100001000 g
b0 Y
1%
0L
b0 Z
1)
#2580000
0)
#2590000
1L
b1 Z
1)
#2600000
0)
#2610000
1e
b100100001000 f
b11 `
1$
0%
0L
b0 Z
1)
#2620000
0)
#2630000
b1 [
1L
b1 Z
1)
#2640000
0)
#2650000
b10 [
0L
b0 Z
1)
#2660000
0)
#2670000
b100100001000 j
b0 i
b0 g
b100 `
b11000 Y
b1011010000001011001001000000000000000000000000 _
0$
1L
b1 Z
1)
#2680000
0)
#2690000
b1 i
b10111 Y
1%
0L
b0 Z
1)
#2700000
0)
#2710000
1L
b1 Z
1)
#2720000
0)
#2730000
b10110100000010110010010000000000000000000000000 _
0%
0L
b0 Z
1)
#2740000
0)
#2750000
1L
b1 Z
1)
#2760000
0)
#2770000
b10 i
b10110 Y
1%
0L
b0 Z
1)
#2780000
0)
#2790000
1L
b1 Z
1)
#2800000
0)
#2810000
1"
b101101000000101100100100000000000000000000000000 _
0%
0L
b0 Z
1)
#2820000
0)
#2830000
1L
b1 Z
1)
#2840000
0)
#2850000
b11 i
b1 g
b10101 Y
1%
0L
b0 Z
1)
#2860000
0)
#2870000
1L
b1 Z
1)
#2880000
0)
#2890000
0"
b11010000001011001001000000000000000000000000000 _
0%
0L
b0 Z
1)
#2900000
0)
#2910000
1L
b1 Z
1)
#2920000
0)
#2930000
b100 i
b10 g
b10100 Y
1%
0L
b0 Z
1)
#2940000
0)
#2950000
1L
b1 Z
1)
#2960000
0)
#2970000
1"
b110100000010110010010000000000000000000000000000 _
0%
0L
b0 Z
1)
#2980000
0)
#2990000
1L
b1 Z
1)
#3000000
0)
#3010000
b101 i
b101 g
b10011 Y
1%
0L
b0 Z
1)
#3020000
0)
#3030000
1L
b1 Z
1)
#3040000
0)
#3050000
b101000000101100100100000000000000000000000000000 _
0%
0L
b0 Z
1)
#3060000
0)
#3070000
1L
b1 Z
1)
#3080000
0)
#3090000
b110 i
b1011 g
b10010 Y
1%
0L
b0 Z
1)
#3100000
0)
#3110000
1L
b1 Z
1)
#3120000
0)
#3130000
0"
b10000001011001001000000000000000000000000000000 _
0%
0L
b0 Z
1)
#3140000
0)
#3150000
1L
b1 Z
1)
#3160000
0)
#3170000
b111 i
b10110 g
b10001 Y
1%
0L
b0 Z
1)
#3180000
0)
#3190000
1L
b1 Z
1)
#3200000
0)
#3210000
1"
b100000010110010010000000000000000000000000000000 _
0%
0L
b0 Z
1)
#3220000
0)
#3230000
1L
b1 Z
1)
#3240000
0)
#3250000
b1000 i
b101101 g
b10000 Y
1%
0L
b0 Z
1)
#3260000
0)
#3270000
1L
b1 Z
1)
#3280000
0)
#3290000
0"
b101100100100000000000000000000000000000000 _
0%
0L
b0 Z
1)
#3300000
0)
#3310000
1L
b1 Z
1)
#3320000
0)
#3330000
b1001 i
b1011010 g
b1111 Y
1%
0L
b0 Z
1)
#3340000
0)
#3350000
1L
b1 Z
1)
#3360000
0)
#3370000
b1011001001000000000000000000000000000000000 _
0%
0L
b0 Z
1)
#3380000
0)
#3390000
1L
b1 Z
1)
#3400000
0)
#3410000
b1010 i
b10110100 g
b1110 Y
1%
0L
b0 Z
1)
#3420000
0)
#3430000
1L
b1 Z
1)
#3440000
0)
#3450000
b10110010010000000000000000000000000000000000 _
0%
0L
b0 Z
1)
#3460000
0)
#3470000
1L
b1 Z
1)
#3480000
0)
#3490000
b1011 i
b101101000 g
b1101 Y
1%
0L
b0 Z
1)
#3500000
0)
#3510000
1L
b1 Z
1)
#3520000
0)
#3530000
b101100100100000000000000000000000000000000000 _
0%
0L
b0 Z
1)
#3540000
0)
#3550000
1L
b1 Z
1)
#3560000
0)
#3570000
b1100 i
b1011010000 g
b1100 Y
1%
0L
b0 Z
1)
#3580000
0)
#3590000
1L
b1 Z
1)
#3600000
0)
#3610000
b1011001001000000000000000000000000000000000000 _
0%
0L
b0 Z
1)
#3620000
0)
#3630000
1L
b1 Z
1)
#3640000
0)
#3650000
b1101 i
b10110100000 g
b1011 Y
1%
0L
b0 Z
1)
#3660000
0)
#3670000
1L
b1 Z
1)
#3680000
0)
#3690000
b10110010010000000000000000000000000000000000000 _
0%
0L
b0 Z
1)
#3700000
0)
#3710000
1L
b1 Z
1)
#3720000
0)
#3730000
b1110 i
b101101000000 g
b1010 Y
1%
0L
b0 Z
1)
#3740000
0)
#3750000
1L
b1 Z
1)
#3760000
0)
#3770000
1"
b101100100100000000000000000000000000000000000000 _
0%
0L
b0 Z
1)
#3780000
0)
#3790000
1L
b1 Z
1)
#3800000
0)
#3810000
b1111 i
b1011010000001 g
b1001 Y
1%
0L
b0 Z
1)
#3820000
0)
#3830000
1L
b1 Z
1)
#3840000
0)
#3850000
0"
b11001001000000000000000000000000000000000000000 _
0%
0L
b0 Z
1)
#3860000
0)
#3870000
1L
b1 Z
1)
#3880000
0)
#3890000
b10000 i
b10110100000010 g
b1000 Y
1%
0L
b0 Z
1)
#3900000
0)
#3910000
1L
b1 Z
1)
#3920000
0)
#3930000
1"
b110010010000000000000000000000000000000000000000 _
0%
0L
b0 Z
1)
#3940000
0)
#3950000
1L
b1 Z
1)
#3960000
0)
#3970000
b10001 i
b101101000000101 g
b111 Y
1%
0L
b0 Z
1)
#3980000
0)
#3990000
1L
b1 Z
1)
#4000000
0)
#4010000
b100100100000000000000000000000000000000000000000 _
0%
0L
b0 Z
1)
#4020000
0)
#4030000
1L
b1 Z
1)
#4040000
0)
#4050000
b10010 i
b1011010000001011 g
b110 Y
1%
0L
b0 Z
1)
#4060000
0)
#4070000
1L
b1 Z
1)
#4080000
0)
#4090000
0"
b1001000000000000000000000000000000000000000000 _
0%
0L
b0 Z
1)
#4100000
0)
#4110000
1L
b1 Z
1)
#4120000
0)
#4130000
b10011 i
b10110100000010110 g
b101 Y
1%
0L
b0 Z
1)
#4140000
0)
#4150000
1L
b1 Z
1)
#4160000
0)
#4170000
b10010000000000000000000000000000000000000000000 _
0%
0L
b0 Z
1)
#4180000
0)
#4190000
1L
b1 Z
1)
#4200000
0)
#4210000
b10100 i
b101101000000101100 g
b100 Y
1%
0L
b0 Z
1)
#4220000
0)
#4230000
1L
b1 Z
1)
#4240000
0)
#4250000
1"
b100100000000000000000000000000000000000000000000 _
0%
0L
b0 Z
1)
#4260000
0)
#4270000
1L
b1 Z
1)
#4280000
0)
#4290000
b10101 i
b1011010000001011001 g
b11 Y
1%
0L
b0 Z
1)
#4300000
0)
#4310000
1L
b1 Z
1)
#4320000
0)
#4330000
0"
b1000000000000000000000000000000000000000000000 _
0%
0L
b0 Z
1)
#4340000
0)
#4350000
1L
b1 Z
1)
#4360000
0)
#4370000
b10110 i
b10110100000010110010 g
b10 Y
1%
0L
b0 Z
1)
#4380000
0)
#4390000
1L
b1 Z
1)
#4400000
0)
#4410000
b10000000000000000000000000000000000000000000000 _
0%
0L
b0 Z
1)
#4420000
0)
#4430000
1L
b1 Z
1)
#4440000
0)
#4450000
b10111 i
b101101000000101100100 g
b1 Y
1%
0L
b0 Z
1)
#4460000
0)
#4470000
1L
b1 Z
1)
#4480000
0)
#4490000
1"
b100000000000000000000000000000000000000000000000 _
0%
0L
b0 Z
1)
#4500000
0)
#4510000
1L
b1 Z
1)
#4520000
0)
#4530000
b11000 i
b1011010000001011001001 g
b0 Y
1%
0L
b0 Z
1)
#4540000
0)
#4550000
1L
b1 Z
1)
#4560000
0)
#4570000
0e
b101 `
1$
0%
0L
b0 Z
1)
#4580000
0)
#4590000
b0 `
00
1/
1L
b1 Z
1)
#4600000
0)
#4610000
b10000001101100 D
b110000001000 C
b10 !
b10 -
b10 B
b1 A
0L
b0 Z
0/
1)
#4620000
0)
#4630000
1L
b1 Z
b11 !
b11 -
b11 B
b10000001101100 G
b10000001101100 K
b110000001000 E
b110000001000 I
1H
1)
#4640000
0)
#4650000
0H
b1 `
b10000001101100 a
b110000001000 X
10
0L
b0 Z
1)
#4660000
0)
#4670000
b0 i
b0 g
b10 `
b11000 Y
0"
b1000000000110000001000000000000000000000000000 _
0$
1L
b1 Z
1)
#4680000
0)
#4690000
b1 i
b10111 Y
1%
0L
b0 Z
1)
#4700000
0)
#4710000
1L
b1 Z
1)
#4720000
0)
#4730000
b10000000001100000010000000000000000000000000000 _
0%
0L
b0 Z
1)
#4740000
0)
#4750000
1L
b1 Z
1)
#4760000
0)
#4770000
b10 i
b10110 Y
1%
0L
b0 Z
1)
#4780000
0)
#4790000
1L
b1 Z
1)
#4800000
0)
#4810000
1"
b100000000011000000100000000000000000000000000000 _
0%
0L
b0 Z
1)
#4820000
0)
#4830000
1L
b1 Z
1)
#4840000
0)
#4850000
b11 i
b1 g
b10101 Y
1%
0L
b0 Z
1)
#4860000
0)
#4870000
1L
b1 Z
1)
#4880000
0)
#4890000
0"
b110000001000000000000000000000000000000 _
0%
0L
b0 Z
1)
#4900000
0)
#4910000
1L
b1 Z
1)
#4920000
0)
#4930000
b100 i
b10 g
b10100 Y
1%
0L
b0 Z
1)
#4940000
0)
#4950000
1L
b1 Z
1)
#4960000
0)
#4970000
b1100000010000000000000000000000000000000 _
0%
0L
b0 Z
1)
#4980000
0)
#4990000
1L
b1 Z
1)
#5000000
0)
#5010000
b101 i
b100 g
b10011 Y
1%
0L
b0 Z
1)
#5020000
0)
#5030000
1L
b1 Z
1)
#5040000
0)
#5050000
b11000000100000000000000000000000000000000 _
0%
0L
b0 Z
1)
#5060000
0)
#5070000
1L
b1 Z
1)
#5080000
0)
#5090000
b110 i
b1000 g
b10010 Y
1%
0L
b0 Z
1)
#5100000
0)
#5110000
1L
b1 Z
1)
#5120000
0)
#5130000
b110000001000000000000000000000000000000000 _
0%
0L
b0 Z
1)
#5140000
0)
#5150000
1L
b1 Z
1)
#5160000
0)
#5170000
b111 i
b10000 g
b10001 Y
1%
0L
b0 Z
1)
#5180000
0)
#5190000
1L
b1 Z
1)
#5200000
0)
#5210000
b1100000010000000000000000000000000000000000 _
0%
0L
b0 Z
1)
#5220000
0)
#5230000
1L
b1 Z
1)
#5240000
0)
#5250000
b1000 i
b100000 g
b10000 Y
1%
0L
b0 Z
1)
#5260000
0)
#5270000
1L
b1 Z
1)
#5280000
0)
#5290000
b11000000100000000000000000000000000000000000 _
0%
0L
b0 Z
1)
#5300000
0)
#5310000
1L
b1 Z
1)
#5320000
0)
#5330000
b1001 i
b1000000 g
b1111 Y
1%
0L
b0 Z
1)
#5340000
0)
#5350000
1L
b1 Z
1)
#5360000
0)
#5370000
b110000001000000000000000000000000000000000000 _
0%
0L
b0 Z
1)
#5380000
0)
#5390000
1L
b1 Z
1)
#5400000
0)
#5410000
b1010 i
b10000000 g
b1110 Y
1%
0L
b0 Z
1)
#5420000
0)
#5430000
1L
b1 Z
1)
#5440000
0)
#5450000
b1100000010000000000000000000000000000000000000 _
0%
0L
b0 Z
1)
#5460000
0)
#5470000
1L
b1 Z
1)
#5480000
0)
#5490000
b1011 i
b100000000 g
b1101 Y
1%
0L
b0 Z
1)
#5500000
0)
#5510000
1L
b1 Z
1)
#5520000
0)
#5530000
b11000000100000000000000000000000000000000000000 _
0%
0L
b0 Z
1)
#5540000
0)
#5550000
1L
b1 Z
1)
#5560000
0)
#5570000
b1100 i
b1000000000 g
b1100 Y
1%
0L
b0 Z
1)
#5580000
0)
#5590000
1L
b1 Z
1)
#5600000
0)
#5610000
1"
b110000001000000000000000000000000000000000000000 _
0%
0L
b0 Z
1)
#5620000
0)
#5630000
1L
b1 Z
1)
#5640000
0)
#5650000
b1101 i
b10000000001 g
b1011 Y
1%
0L
b0 Z
1)
#5660000
0)
#5670000
1L
b1 Z
1)
#5680000
0)
#5690000
b100000010000000000000000000000000000000000000000 _
0%
0L
b0 Z
1)
#5700000
0)
#5710000
1L
b1 Z
1)
#5720000
0)
#5730000
b1110 i
b100000000011 g
b1010 Y
1%
0L
b0 Z
1)
#5740000
0)
#5750000
1L
b1 Z
1)
#5760000
0)
#5770000
0"
b100000000000000000000000000000000000000000 _
0%
0L
b0 Z
1)
#5780000
0)
#5790000
1L
b1 Z
1)
#5800000
0)
#5810000
b1111 i
b1000000000110 g
b1001 Y
1%
0L
b0 Z
1)
#5820000
0)
#5830000
1L
b1 Z
1)
#5840000
0)
#5850000
b1000000000000000000000000000000000000000000 _
0%
0L
b0 Z
1)
#5860000
0)
#5870000
1L
b1 Z
1)
#5880000
0)
#5890000
b10000 i
b10000000001100 g
b1000 Y
1%
0L
b0 Z
1)
#5900000
0)
#5910000
1L
b1 Z
1)
#5920000
0)
#5930000
b10000000000000000000000000000000000000000000 _
0%
0L
b0 Z
1)
#5940000
0)
#5950000
1L
b1 Z
1)
#5960000
0)
#5970000
b10001 i
b100000000011000 g
b111 Y
1%
0L
b0 Z
1)
#5980000
0)
#5990000
1L
b1 Z
1)
#6000000
0)
#6010000
b100000000000000000000000000000000000000000000 _
0%
0L
b0 Z
1)
#6020000
0)
#6030000
1L
b1 Z
1)
#6040000
0)
#6050000
b10010 i
b1000000000110000 g
b110 Y
1%
0L
b0 Z
1)
#6060000
0)
#6070000
1L
b1 Z
1)
#6080000
0)
#6090000
b1000000000000000000000000000000000000000000000 _
0%
0L
b0 Z
1)
#6100000
0)
#6110000
1L
b1 Z
1)
#6120000
0)
#6130000
b10011 i
b10000000001100000 g
b101 Y
1%
0L
b0 Z
1)
#6140000
0)
#6150000
1L
b1 Z
1)
#6160000
0)
#6170000
b10000000000000000000000000000000000000000000000 _
0%
0L
b0 Z
1)
#6180000
0)
#6190000
1L
b1 Z
1)
#6200000
0)
#6210000
b10100 i
b100000000011000000 g
b100 Y
1%
0L
b0 Z
1)
#6220000
0)
#6230000
1L
b1 Z
1)
#6240000
0)
#6250000
1"
b100000000000000000000000000000000000000000000000 _
0%
0L
b0 Z
1)
#6260000
0)
#6270000
1L
b1 Z
1)
#6280000
0)
#6290000
b10101 i
b1000000000110000001 g
b11 Y
1%
0L
b0 Z
1)
#6300000
0)
#6310000
1L
b1 Z
1)
#6320000
0)
#6330000
0"
b0 _
0%
0L
b0 Z
1)
#6340000
0)
#6350000
1L
b1 Z
1)
#6360000
0)
#6370000
b10110 i
b10000000001100000010 g
b10 Y
1%
0L
b0 Z
1)
#6380000
0)
#6390000
1L
b1 Z
1)
#6400000
0)
#6410000
0%
0L
b0 Z
1)
#6420000
0)
#6430000
1L
b1 Z
1)
#6440000
0)
#6450000
b10111 i
b100000000011000000100 g
b1 Y
1%
0L
b0 Z
1)
#6460000
0)
#6470000
1L
b1 Z
1)
#6480000
0)
#6490000
0%
0L
b0 Z
1)
#6500000
0)
#6510000
1L
b1 Z
1)
#6520000
0)
#6530000
b11000 i
b1000000000110000001000 g
b0 Y
1%
0L
b0 Z
1)
#6540000
0)
#6550000
1L
b1 Z
1)
#6560000
0)
#6570000
1e
b110000001000 f
b11 `
b0 [
1$
0%
0L
b0 Z
1)
#6580000
0)
#6590000
b1 [
1L
b1 Z
1)
#6600000
0)
#6610000
b10 [
0L
b0 Z
1)
#6620000
0)
#6630000
b110000001000 j
b0 i
b0 g
b100 `
b11000 Y
b1011010010000001101100000000000000000000000000 _
0$
1L
b1 Z
1)
#6640000
0)
#6650000
b1 i
b10111 Y
1%
0L
b0 Z
1)
#6660000
0)
#6670000
1L
b1 Z
1)
#6680000
0)
#6690000
b10110100100000011011000000000000000000000000000 _
0%
0L
b0 Z
1)
#6700000
0)
#6710000
1L
b1 Z
1)
#6720000
0)
#6730000
b10 i
b10110 Y
1%
0L
b0 Z
1)
#6740000
0)
#6750000
1L
b1 Z
1)
#6760000
0)
#6770000
1"
b101101001000000110110000000000000000000000000000 _
0%
0L
b0 Z
1)
#6780000
0)
#6790000
1L
b1 Z
1)
#6800000
0)
#6810000
b11 i
b1 g
b10101 Y
1%
0L
b0 Z
1)
#6820000
0)
#6830000
1L
b1 Z
1)
#6840000
0)
#6850000
0"
b11010010000001101100000000000000000000000000000 _
0%
0L
b0 Z
1)
#6860000
0)
#6870000
1L
b1 Z
1)
#6880000
0)
#6890000
b100 i
b10 g
b10100 Y
1%
0L
b0 Z
1)
#6900000
0)
#6910000
1L
b1 Z
1)
#6920000
0)
#6930000
1"
b110100100000011011000000000000000000000000000000 _
0%
0L
b0 Z
1)
#6940000
0)
